{"request":{"country":"uk","language":"en","location":"london","num_res":"20","offset":0,"output":"json_xs","page":1,"product_type":"realestate","property_type":"property","size_type":"net","size_unit":"m2","sort":"nestoria_rank","listing_type":"buy"},"response":{"application_response_code":"100","application_response_text":"listings returned for one unambiguous location","attribution":{"img_height":22,"img_url":"https://resources.nestimg.com/nestoria/img/pbr_v1.png","img_width":183,"link_to_img":"http://www.nestoria.com"},"created_http":"Sat, 23 Feb 2019 02:19:05 GMT","created_unix":1550888345,"link_to_url":"https://www.nestoria.co.uk/london/property/buy","listings":[{"bathroom_number":3,"bedroom_number":3,"car_spaces":0,"commission":0,"construction_year":0,"datasource_name":"OnTheMarket.com","img_height":300,"img_url":"https://imgs.nestimg.com/3_bedroom_apartment_for_sale_111006999994839794.jpg","img_width":400,"keywords":"Garden, Balcony, Double Bedroom, Porter, Parking","latitude":51.5157,"lister_url":"https://www.nestoria.co.uk/detail/0000000111006999994839794/title/5/1-1?serpUid=&pt=1&ot=1&l=london&did=105_high1&utm_source=api&utm_medium=external","listing_type":"buy","location_accuracy":9,"longitude":-0.12817,"price":2600000,"price_currency":"£","price_formatted":"£2,600,000","price_high":2600000,"price_low":2600000,"price_type":"fixed","property_type":"flat","size":0,"size_type":"net","summary":"A luxury three bedroom apartment measuring over 1,500 sq. Ft. Set o...","thumb_height":60,"thumb_url":"https://imgs.nestimg.com/medium/3_bedroom_apartment_for_sale_111006999994839794.jpg","thumb_width":80,"title":"Central St Giles Piazza, Covent Garden, London WC2H","updated_in_days":1,"updated_in_days_formatted":"first seen yesterday"},{"bathroom_number":2,"bedroom_number":3,"car_spaces":0,"commission":0,"construction_year":0,"datasource_name":"OnTheMarket.com","img_height":300,"img_url":"https://imgs.nestimg.com/3_bedroom_flat_for_sale_109243771378247328.jpg","img_width":400,"keywords":"En suite, Balcony, Refurbished, Kitchen, Lift, Porter, Modern, Parking, Reception","latitude":51.528316,"lister_url":"https://www.nestoria.co.uk/detail/0000000109243771378247328/title/5/1-2?serpUid=&pt=1&ot=1&l=london&did=105_high1&utm_source=api&utm_medium=external","listing_type":"buy","location_accuracy":9,"longitude":-0.1679381,"price":1325000,"price_currency":"£","price_formatted":"£1,325,000","price_high":1325000,"price_low":1325000,"price_type":"fixed","property_type":"flat","size":0,"size_type":"net","summary":"Regent court, north bank, london nw8 a newly refurbished three bedr...","thumb_height":60,"thumb_url":"https://imgs.nestimg.com/medium/3_bedroom_flat_for_sale_109243771378247328.jpg","thumb_width":80,"title":"Regent Court, North Bank, London, NW8","updated_in_days":1,"updated_in_days_formatted":"first seen yesterday"},{"bathroom_number":"","bedroom_number":1,"car_spaces":0,"commission":0,"construction_year":0,"datasource_name":"OnTheMarket.com","img_height":300,"img_url":"https://imgs.nestimg.com/1_bedroom_flat_for_sale_111006998433137753.jpg","img_width":400,"keywords":"Share of Freehold, Shared Garden, Fireplace, Purpose Built, Wood Floor, Kitchen, Lift, Reception","latitude":51.5488,"lister_url":"https://www.nestoria.co.uk/detail/0000000111006998433137753/title/5/1-3?serpUid=&pt=1&ot=1&l=london&did=105_high1&utm_source=api&utm_medium=external","listing_type":"buy","location_accuracy":9,"longitude":-0.164732,"price":475000,"price_currency":"£","price_formatted":"£475,000","price_high":475000,"price_low":475000,"price_type":"fixed","property_type":"flat","size":0,"size_type":"net","summary":"A one bedroom apartment ly updated by the current vendor contempora...","thumb_height":60,"thumb_url":"https://imgs.nestimg.com/medium/1_bedroom_flat_for_sale_111006998433137753.jpg","thumb_width":80,"title":"Belsize Grove, Belsize Park, London","updated_in_days":1,"updated_in_days_formatted":"first seen yesterday"},{"bathroom_number":2,"bedroom_number":5,"car_spaces":0,"commission":0,"construction_year":0,"datasource_name":"OnTheMarket.com","img_height":300,"img_url":"https://imgs.nestimg.com/5_bedroom_terraced_house_for_sale_111006999658084299.jpg","img_width":400,"keywords":"Garden, Needs Modernisation, Terraced, Victorian, Kitchen, Off Street Parking, Reception","latitude":51.485,"lister_name":"Re/max","lister_url":"https://www.nestoria.co.uk/detail/0000000111006999658084299/title/5/1-4?serpUid=&pt=1&ot=1&l=london&did=105_high1&utm_source=api&utm_medium=external","listing_type":"buy","location_accuracy":9,"longitude":-0.118885,"price":1500000,"price_currency":"£","price_formatted":"£1,500,000","price_high":1500000,"price_low":1500000,"price_type":"fixed","property_type":"house","size":0,"size_type":"net","summary":"This quirky end of terrace victorian house just two minutes walk fr...","thumb_height":60,"thumb_url":"https://imgs.nestimg.com/medium/5_bedroom_terraced_house_for_sale_111006999658084299.jpg","thumb_width":80,"title":"Harleyford Road, Vauxhall, London, SE11","updated_in_days":1,"updated_in_days_formatted":"first seen yesterday"},{"bathroom_number":"","bedroom_number":3,"car_spaces":0,"commission":0,"construction_year":0,"datasource_name":"OnTheMarket.com","img_height":300,"img_url":"https://imgs.nestimg.com/3_bedroom_flat_for_sale_110592299277239996.jpg","img_width":400,"keywords":"Purpose Built, Modern","latitude":51.5344,"lister_url":"https://www.nestoria.co.uk/detail/0000000110592299277239996/title/5/1-5?serpUid=&pt=1&ot=1&l=london&did=105_high1&utm_source=api&utm_medium=external","listing_type":"buy","location_accuracy":9,"longitude":-0.112508,"price":500000,"price_currency":"£","price_formatted":"£500,000","price_high":500000,"price_low":500000,"price_type":"fixed","property_type":"flat","size":0,"size_type":"net","summary":"A unique opportunity has risen to purchase this interior designed t...","thumb_height":60,"thumb_url":"https://imgs.nestimg.com/medium/3_bedroom_flat_for_sale_110592299277239996.jpg","thumb_width":80,"title":"Maygood House, London - Modern","updated_in_days":1,"updated_in_days_formatted":"first seen yesterday"},{"bathroom_number":5,"bedroom_number":5,"car_spaces":0,"commission":0,"construction_year":0,"datasource_name":"OnTheMarket.com","img_height":300,"img_url":"https://imgs.nestimg.com/5_bedroom_house_for_sale_111006998323778868.jpg","img_width":400,"keywords":"Freehold, Garden, Kitchen, Parking, Reception","latitude":51.5547,"lister_url":"https://www.nestoria.co.uk/detail/0000000111006998323778868/title/5/1-6?serpUid=&pt=1&ot=1&l=london&did=105_high1&utm_source=api&utm_medium=external","listing_type":"buy","location_accuracy":9,"longitude":-0.055394,"price":800000,"price_currency":"£","price_formatted":"£800,000","price_high":800000,"price_low":800000,"price_type":"fixed","property_type":"house","size":0,"size_type":"net","summary":"Freehold five bedroom house located in the lower clapton area. This...","thumb_height":60,"thumb_url":"https://imgs.nestimg.com/medium/5_bedroom_house_for_sale_111006998323778868.jpg","thumb_width":80,"title":"Clarence Road, London - Reception","updated_in_days":1,"updated_in_days_formatted":"first seen yesterday"},{"bathroom_number":"","bedroom_number":1,"car_spaces":0,"commission":0,"construction_year":0,"datasource_name":"OnTheMarket.com","img_height":300,"img_url":"https://imgs.nestimg.com/1_bedroom_flat_for_sale_108193045486790798.jpg","img_width":400,"keywords":"Leasehold, New Build, Balcony, Gym, Wood Floor, Kitchen, Lift, Porter","latitude":51.492374,"lister_name":"Chestertons","lister_url":"https://www.nestoria.co.uk/detail/0000000108193045486790798/title/5/1-7?serpUid=&pt=1&ot=1&l=london&did=105_high1&utm_source=api&utm_medium=external","listing_type":"buy","location_accuracy":9,"longitude":-0.095738,"price":550000,"price_currency":"£","price_formatted":"£550,000","price_high":550000,"price_low":550000,"price_type":"fixed","property_type":"flat","size":0,"size_type":"net","summary":"A 7th floor one bedroom apartment on a brand new development in ele...","thumb_height":60,"thumb_url":"https://imgs.nestimg.com/medium/1_bedroom_flat_for_sale_108193045486790798.jpg","thumb_width":80,"title":"Sir John Soane Apartments, 20 Heygate Street, London","updated_in_days":1,"updated_in_days_formatted":"first seen yesterday"},{"bathroom_number":2,"bedroom_number":2,"car_spaces":0,"commission":0,"construction_year":0,"datasource_name":"OnTheMarket.com","img_height":300,"img_url":"https://imgs.nestimg.com/2_bedroom_maisonette_for_sale_110220746811980455.jpg","img_width":400,"keywords":"Share of Freehold, Maisonette, Balcony, Reception","latitude":51.5237,"lister_name":"Chestertons","lister_url":"https://www.nestoria.co.uk/detail/0000000110220746811980455/title/5/1-8?serpUid=&pt=1&ot=1&l=london&did=105_high1&utm_source=api&utm_medium=external","listing_type":"buy","location_accuracy":9,"longitude":-0.165724,"price":849950,"price_currency":"£","price_formatted":"£849,950","price_high":849950,"price_low":849950,"price_type":"fixed","property_type":"flat","size":0,"size_type":"net","summary":"A 2 bedroom, 2 bathroom maisonette located in this gated developmen...","thumb_height":60,"thumb_url":"https://imgs.nestimg.com/medium/2_bedroom_maisonette_for_sale_110220746811980455.jpg","thumb_width":80,"title":"Portman Gate, Broadley Terrace, London","updated_in_days":1,"updated_in_days_formatted":"first seen yesterday"},{"bathroom_number":"","bedroom_number":1,"car_spaces":0,"commission":0,"construction_year":0,"datasource_name":"OnTheMarket.com","img_height":300,"img_url":"https://imgs.nestimg.com/1_bedroom_flat_for_sale_111007000197837259.jpg","img_width":400,"keywords":"Balcony, Gym, Porter, Modern","latitude":51.526,"lister_url":"https://www.nestoria.co.uk/detail/0000000111007000197837259/title/5/1-9?serpUid=&pt=1&ot=1&l=london&did=105_high1&utm_source=api&utm_medium=external","listing_type":"buy","location_accuracy":9,"longitude":-0.139166,"price":890000,"price_currency":"£","price_formatted":"£890,000","price_high":890000,"price_low":890000,"price_type":"fixed","property_type":"flat","size":0,"size_type":"net","summary":"A bright one bedroom flat on the eighth floor of this modern apartm...","thumb_height":60,"thumb_url":"https://imgs.nestimg.com/medium/1_bedroom_flat_for_sale_111007000197837259.jpg","thumb_width":80,"title":"The Triton Building, 20 Brock Street, London, NW1","updated_in_days":1,"updated_in_days_formatted":"first seen yesterday"},{"bathroom_number":"","bedroom_number":2,"car_spaces":0,"commission":0,"construction_year":0,"datasource_name":"OnTheMarket.com","img_height":300,"img_url":"https://imgs.nestimg.com/2_bedroom_flat_for_sale_111006999269874869.jpg","img_width":400,"keywords":"En suite, Kitchen, Shared Ownership, Reception","latitude":51.5455,"lister_name":"Urban Moves","lister_url":"https://www.nestoria.co.uk/detail/0000000111006999269874869/title/5/1-10?serpUid=&pt=1&ot=1&l=london&did=105_high1&utm_source=api&utm_medium=external","listing_type":"buy","location_accuracy":9,"longitude":-0.087428,"price":120000,"price_currency":"£","price_formatted":"£120,000","price_high":120000,"price_low":120000,"price_type":"fixed","property_type":"flat","size":0,"size_type":"net","summary":"Shared ownership. This well-presented, ground-floor apartment featu...","thumb_height":60,"thumb_url":"https://imgs.nestimg.com/medium/2_bedroom_flat_for_sale_111006999269874869.jpg","thumb_width":80,"title":"Northpoint House, 400 Essex Road, London","updated_in_days":1,"updated_in_days_formatted":"first seen yesterday"},{"bathroom_number":"","bedroom_number":2,"car_spaces":0,"commission":0,"construction_year":0,"datasource_name":"OnTheMarket.com","img_height":300,"img_url":"https://imgs.nestimg.com/2_bedroom_flat_for_sale_111007003017018693.jpg","img_width":400,"keywords":"Terraced, Victorian, Double Bedroom, Kitchen, Reception","latitude":51.5499,"lister_url":"https://www.nestoria.co.uk/detail/0000000111007003017018693/title/5/1-11?serpUid=&pt=1&ot=1&l=london&did=105_high1&utm_source=api&utm_medium=external","listing_type":"buy","location_accuracy":9,"longitude":-0.090172,"price":760000,"price_currency":"£","price_formatted":"£760,000","price_high":760000,"price_low":760000,"price_type":"fixed","property_type":"flat","size":0,"size_type":"net","summary":"Set within a victorian terraced house and arranged over two upper f...","thumb_height":60,"thumb_url":"https://imgs.nestimg.com/medium/2_bedroom_flat_for_sale_111007003017018693.jpg","thumb_width":80,"title":"Beresford Road, London, N5 - Terraced","updated_in_days":1,"updated_in_days_formatted":"first seen yesterday"},{"bathroom_number":"","bedroom_number":2,"car_spaces":0,"commission":0,"construction_year":0,"datasource_name":"OnTheMarket.com","img_height":300,"img_url":"https://imgs.nestimg.com/2_bedroom_apartment_for_sale_111007005150241227.jpg","img_width":400,"keywords":"No Chain","latitude":51.5098,"lister_url":"https://www.nestoria.co.uk/detail/0000000111007005150241227/title/5/1-12?serpUid=&pt=1&ot=1&l=london&did=105_high1&utm_source=api&utm_medium=external","listing_type":"buy","location_accuracy":9,"longitude":-0.125729,"price":899950,"price_currency":"£","price_formatted":"£899,950","price_high":899950,"price_low":899950,"price_type":"fixed","property_type":"flat","size":0,"size_type":"net","summary":"A duplex two bedroom fully air conditioned apartment in covent gard...","thumb_height":60,"thumb_url":"https://imgs.nestimg.com/medium/2_bedroom_apartment_for_sale_111007005150241227.jpg","thumb_width":80,"title":"Bedfordbury, Covent Garden, London","updated_in_days":1,"updated_in_days_formatted":"first seen yesterday"},{"bathroom_number":"","bedroom_number":2,"car_spaces":0,"commission":0,"construction_year":0,"datasource_name":"OnTheMarket.com","img_height":300,"img_url":"https://imgs.nestimg.com/2_bedroom_flat_for_sale_111007000856610792.jpg","img_width":400,"keywords":"Leasehold, Shared Garden, Double Bedroom","latitude":51.5446,"lister_name":"Chestertons","lister_url":"https://www.nestoria.co.uk/detail/0000000111007000856610792/title/5/1-13?serpUid=&pt=1&ot=1&l=london&did=105_high1&utm_source=api&utm_medium=external","listing_type":"buy","location_accuracy":9,"longitude":-0.14077,"price":520000,"price_currency":"£","price_formatted":"£520,000","price_high":520000,"price_low":520000,"price_type":"fixed","property_type":"flat","size":0,"size_type":"net","summary":"A and two double bedroom apartment complete with communal garden. W...","thumb_height":60,"thumb_url":"https://imgs.nestimg.com/medium/2_bedroom_flat_for_sale_111007000856610792.jpg","thumb_width":80,"title":"Royal College Street, London - Garden","updated_in_days":1,"updated_in_days_formatted":"first seen yesterday"},{"bathroom_number":"","bedroom_number":2,"car_spaces":0,"commission":0,"construction_year":0,"datasource_name":"OnTheMarket.com","img_height":300,"img_url":"https://imgs.nestimg.com/2_bedroom_flat_for_sale_111007000960155762.jpg","img_width":400,"keywords":"Kitchen","latitude":51.5248,"lister_name":"Keatons","lister_url":"https://www.nestoria.co.uk/detail/0000000111007000960155762/title/5/1-14?serpUid=&pt=1&ot=1&l=london&did=105_high1&utm_source=api&utm_medium=external","listing_type":"buy","location_accuracy":9,"longitude":-0.076361,"price":625000,"price_currency":"£","price_formatted":"£625,000","price_high":625000,"price_low":625000,"price_type":"fixed","property_type":"flat","size":0,"size_type":"net","summary":"A two bedroom period property on the ever- boundary estate. The apa...","thumb_height":60,"thumb_url":"https://imgs.nestimg.com/medium/2_bedroom_flat_for_sale_111007000960155762.jpg","thumb_width":80,"title":"Abingdon House, Boundary Street, London, E2","updated_in_days":1,"updated_in_days_formatted":"first seen yesterday"},{"bathroom_number":2,"bedroom_number":2,"car_spaces":0,"commission":0,"construction_year":0,"datasource_name":"OnTheMarket.com","img_height":300,"img_url":"https://imgs.nestimg.com/2_bedroom_flat_for_sale_109751510532403789.jpg","img_width":400,"keywords":"Garden, Gym, Hot tub, Sauna, Swimming Pool","latitude":51.482254,"lister_url":"https://www.nestoria.co.uk/detail/0000000109751510532403789/title/5/1-15?serpUid=&pt=1&ot=1&l=london&did=105_high1&utm_source=api&utm_medium=external","listing_type":"buy","location_accuracy":9,"longitude":-0.1346121,"price":925000,"price_currency":"£","price_formatted":"£925,000","price_high":925000,"price_low":925000,"price_type":"fixed","property_type":"flat","size":0,"size_type":"net","summary":"A two bedroom, two bathroom apartment on the 3rd floor of ambassado...","thumb_height":60,"thumb_url":"https://imgs.nestimg.com/medium/2_bedroom_flat_for_sale_109751510532403789.jpg","thumb_width":80,"title":"New Union Square, London, SW11 - Gym","updated_in_days":1,"updated_in_days_formatted":"first seen yesterday"},{"bathroom_number":"","bedroom_number":1,"car_spaces":0,"commission":0,"construction_year":0,"datasource_name":"OnTheMarket.com","img_height":300,"img_url":"https://imgs.nestimg.com/1_bedroom_flat_for_sale_110147202341932909.jpg","img_width":400,"keywords":"Shared Garden, Balcony, Modern, Reception","latitude":51.50665,"lister_name":"Knight Frank","lister_url":"https://www.nestoria.co.uk/detail/0000000110147202341932909/title/5/1-16?serpUid=&pt=1&ot=1&l=london&did=105_high1&utm_source=api&utm_medium=external","listing_type":"buy","location_accuracy":9,"longitude":-0.057973,"price":450000,"price_currency":"£","price_formatted":"£450,000","price_high":450000,"price_low":450000,"price_type":"fixed","property_type":"flat","size":0,"size_type":"net","summary":"1 bedroom apartment with balcony for sale in wapping e1w modern one...","thumb_height":60,"thumb_url":"https://imgs.nestimg.com/medium/1_bedroom_flat_for_sale_110147202341932909.jpg","thumb_width":80,"title":"Compass House, 11 Raine Street, Wapping, London, E1W","updated_in_days":1,"updated_in_days_formatted":"first seen yesterday"},{"bathroom_number":"","bedroom_number":2,"car_spaces":0,"commission":0,"construction_year":0,"datasource_name":"OnTheMarket.com","img_height":300,"img_url":"https://imgs.nestimg.com/2_bedroom_penthouse_for_sale_111006999435418007.jpg","img_width":400,"keywords":"Penthouse, Balcony","latitude":51.524178,"lister_url":"https://www.nestoria.co.uk/detail/0000000111006999435418007/title/5/1-17?serpUid=&pt=1&ot=1&l=london&did=105_high1&utm_source=api&utm_medium=external","listing_type":"buy","location_accuracy":9,"longitude":-0.083677,"price":3115000,"price_currency":"£","price_formatted":"£3,115,000","price_high":3115000,"price_low":3115000,"price_type":"fixed","property_type":"flat","size":0,"size_type":"net","summary":"45th floor 2 bedroom penthouse with private terrace set within the ...","thumb_height":60,"thumb_url":"https://imgs.nestimg.com/medium/2_bedroom_penthouse_for_sale_111006999435418007.jpg","thumb_width":80,"title":"Principal Place, Worship Street, London, EC2A","updated_in_days":1,"updated_in_days_formatted":"first seen yesterday"},{"bathroom_number":"","bedroom_number":2,"car_spaces":0,"commission":0,"construction_year":0,"datasource_name":"OnTheMarket.com","img_height":300,"img_url":"https://imgs.nestimg.com/2_bedroom_apartment_for_sale_111001020536136325.jpg","img_width":400,"keywords":"No Chain, Balcony","latitude":51.50716,"lister_url":"https://www.nestoria.co.uk/detail/0000000111001020536136325/title/5/1-18?serpUid=&pt=1&ot=1&l=london&did=105_high1&utm_source=api&utm_medium=external","listing_type":"buy","location_accuracy":9,"longitude":-0.1154858,"price":995000,"price_currency":"£","price_formatted":"£995,000","price_high":995000,"price_low":995000,"price_type":"fixed","property_type":"flat","size":0,"size_type":"net","summary":"A brand new 820 sq ft two bedroom apartment with balcony, available...","thumb_height":60,"thumb_url":"https://imgs.nestimg.com/medium/2_bedroom_apartment_for_sale_111001020536136325.jpg","thumb_width":80,"title":"The Corniche, 24 Albert Embankment, London","updated_in_days":1,"updated_in_days_formatted":"first seen yesterday"},{"bathroom_number":"","bedroom_number":3,"car_spaces":0,"commission":0,"construction_year":0,"datasource_name":"OnTheMarket.com","img_height":300,"img_url":"https://imgs.nestimg.com/3_bedroom_flat_for_sale_111007000884807849.jpg","img_width":400,"keywords":"Double Bedroom, Kitchen, Reception","latitude":51.500256,"lister_url":"https://www.nestoria.co.uk/detail/0000000111007000884807849/title/5/1-19?serpUid=&pt=1&ot=1&l=london&did=105_high1&utm_source=api&utm_medium=external","listing_type":"buy","location_accuracy":9,"longitude":-0.109394,"price":525000,"price_currency":"£","price_formatted":"£525,000","price_high":525000,"price_low":525000,"price_type":"fixed","property_type":"flat","size":0,"size_type":"net","summary":"This three double bedroom, top floor apartment is set in a location...","thumb_height":60,"thumb_url":"https://imgs.nestimg.com/medium/3_bedroom_flat_for_sale_111007000884807849.jpg","thumb_width":80,"title":"Greet House, Frazier Street, London, SE1","updated_in_days":1,"updated_in_days_formatted":"first seen yesterday"},{"bathroom_number":"","bedroom_number":1,"car_spaces":0,"commission":0,"construction_year":0,"datasource_name":"OnTheMarket.com","img_height":300,"img_url":"https://imgs.nestimg.com/1_bedroom_apartment_for_sale_111007002856816938.jpg","img_width":400,"keywords":"Balcony, Gym, Double Bedroom, Kitchen, Porter, Swimming Pool, Modern","latitude":51.570755,"lister_url":"https://www.nestoria.co.uk/detail/0000000111007002856816938/title/5/1-20?serpUid=&pt=1&ot=1&l=london&did=105_high1&utm_source=api&utm_medium=external","listing_type":"buy","location_accuracy":9,"longitude":-0.08936,"price":450000,"price_currency":"£","price_formatted":"£450,000","price_high":450000,"price_low":450000,"price_type":"fixed","property_type":"flat","size":0,"size_type":"net","summary":"A modern, 550sqft one bedroom apartment set within the nature colle...","thumb_height":60,"thumb_url":"https://imgs.nestimg.com/medium/1_bedroom_apartment_for_sale_111007002856816938.jpg","thumb_width":80,"title":"J1, Nature Collection, Woodberry Down, London, N4","updated_in_days":1,"updated_in_days_formatted":"first seen yesterday"}],"locations":[{"center_lat":51.527243,"center_long":-0.106841,"long_title":"London","place_name":"london","title":"London"}],"page":1,"sort":"nestoria_rank","status_code":"200","status_text":"OK","thanks":"For using the Nestoria API.","total_pages":2929,"total_results":58571,"_cu5t0mP434m_":"remove"}}
